[gd_scene load_steps=4 format=2]

[ext_resource path="res://assets/Spritesheets/spritesheet_tiles.png" type="Texture" id=1]
[ext_resource path="res://src/Props/Mushroom/Mushroom.gd" type="Script" id=2]

[sub_resource type="RectangleShape2D" id=1]
extents = Vector2( 32, 24 )

[node name="Mushroom" type="KinematicBody2D" groups=[
"Mushroom",
]]
collision_layer = 4
script = ExtResource( 2 )

[node name="Sprite" type="Sprite" parent="."]
texture = ExtResource( 1 )
vframes = 8
hframes = 9
frame = 48

[node name="CollisionShape2D" type="CollisionShape2D" parent="."]
position = Vector2( 0, 32 )
shape = SubResource( 1 )
